{
    "KPlugin": {
        "Description": "Modify the appearance of window decorations",
        "Description[ar]": "عدّل مظهر زخرفات النّوافذ",
        "Description[bg]": "Промяна на външния вид на декорацията на прозорците",
        "Description[ca@valencia]": "Modifica l'aparença de les decoracions de les finestres",
        "Description[ca]": "Modifica l'aparença de les decoracions de les finestres",
        "Description[cs]": "Změnit vzhled dekorace oken",
        "Description[de]": "Das Erscheinungsbild der Fensterdekoration ändern",
        "Description[el]": "Τροποποίηση της εμφάνισης των διακοσμητικών στοιχείων των παραθύρων",
        "Description[en_GB]": "Modify the appearance of window decorations",
        "Description[eo]": "Modifi la aspekton de fenestraĵaj ornamaĵoj",
        "Description[es]": "Modificar el aspecto de las decoraciones de ventanas",
        "Description[eu]": "Leiho apainduren itxura aldatzea",
        "Description[fi]": "Muuta ikkunakoristeiden ulkoasua",
        "Description[fr]": "Modifier l'apparence des décorations de fenêtres",
        "Description[gl]": "Modifica a aparencia da decoración da xanela.",
        "Description[he]": "שינוי מראה עיטורי החלונות",
        "Description[hu]": "Az ablakdekorációk megjelenésének módosítása",
        "Description[ia]": "Modifica le apparentia de decorationes de fenestra",
        "Description[id]": "Ubah tampilan dekorasi jendela",
        "Description[is]": "Breyta útliti gluggaskreytinga",
        "Description[it]": "Modifica l'aspetto delle decorazioni delle finestre",
        "Description[ka]": "ფანჯრის დეკორაციებს გარეგნობის შეცვლა",
        "Description[ko]": "창 장식의 모양을 수정합니다",
        "Description[nl]": "Wijzig het uiterlijk van vensterdecoraties",
        "Description[nn]": "Endra utsjånad på vindaugspynt",
        "Description[pa]": "ਵਿੰਡੋ ਸਜਾਵਟ ਦੀ ਦਿੱਖ ਨੂੰ ਸੋਧੋ",
        "Description[pl]": "Zmień wygląd okien",
        "Description[pt]": "Modificar a aparência das decorações das janelas",
        "Description[pt_BR]": "Modifica a aparência das decorações da janela",
        "Description[ro]": "Modifică aspectul decorațiilor pentru ferestre",
        "Description[ru]": "Настройка заголовков окон",
        "Description[sk]": "Zmeniť vzhľad dekorácie okien",
        "Description[sl]": "Spremeni videz okenskih okraskov",
        "Description[sv]": "Ändra utseendet hos fönsterdekorationer",
        "Description[tr]": "Pencere dekorasyonlarının görünüşünü değiştirin",
        "Description[uk]": "Внесення змін до обрамлення вікон",
        "Description[x-test]": "xxModify the appearance of window decorationsxx",
        "Description[zh_CN]": "调整窗口装饰外观",
        "Description[zh_TW]": "修改視窗裝飾的外觀",
        "Icon": "preferences-system-windows",
        "Name": "Breeze Window Decoration",
        "Name[ar]": "زخرفة نوافذ نسيم",
        "Name[bg]": "Декорации на прозорци Breeze",
        "Name[ca@valencia]": "Decoració Brisa de les finestres",
        "Name[ca]": "Decoració Brisa de les finestres",
        "Name[cs]": "Dekorace oken Breeze",
        "Name[de]": "Breeze-Fensterdekoration",
        "Name[el]": "Breeze διακόσμηση παραθύρου",
        "Name[en_GB]": "Breeze Window Decoration",
        "Name[eo]": "Breeze-fenestraĵornamoj",
        "Name[es]": "Decoración de ventanas Brisa",
        "Name[eu]": "Breeze leihoen apaindura",
        "Name[fi]": "Breeze-ikkunakoristelu",
        "Name[fr]": "Décoration de fenêtre pour Breeze",
        "Name[gl]": "Decoración de xanela de Brisa",
        "Name[he]": "עיטור חלונות בריזה",
        "Name[hu]": "Breeze ablakdekoráció",
        "Name[ia]": "Decoration de fenestra Breeze",
        "Name[id]": "Dekorasi Jendela Breeze",
        "Name[is]": "Breeze gluggaskreytingar",
        "Name[it]": "Decorazione delle finestre di Brezza",
        "Name[ka]": "Breeze -ის ფანჯრის დეკორაცია",
        "Name[ko]": "Breeze 창 장식",
        "Name[nl]": "Breeze vensterdecoratie",
        "Name[nn]": "Breeze-vindaugspynt",
        "Name[pa]": "ਬਰੀਜ਼ ਵਿੰਡੋ ਸਜਾਵਟ",
        "Name[pl]": "Wygląd okien Bryzy",
        "Name[pt]": "Decoração de Janelas Brisa",
        "Name[pt_BR]": "Decorações da janela Breeze",
        "Name[ro]": "Decorații pentru ferestre Briză",
        "Name[ru]": "Оформление окон Breeze",
        "Name[sk]": "Dekorácie okien Vánok",
        "Name[sl]": "Okraski oken Sapice",
        "Name[sv]": "Breeze fönsterdekoration",
        "Name[tr]": "Esinti Pencere Dekorasyonu",
        "Name[uk]": "Обрамлення вікон Breeze",
        "Name[x-test]": "xxBreeze Window Decorationxx",
        "Name[zh_CN]": "Breeze 微风窗口装饰",
        "Name[zh_TW]": "Breeze 視窗裝飾",
        "ServiceTypes": [
            "KCModule"
        ]
    },
    "X-KDE-Keywords": "breeze,decoration",
    "X-KDE-Keywords[ar]": "نسيم,زخرفة",
    "X-KDE-Keywords[az]": "breeze,dekorasiya",
    "X-KDE-Keywords[bg]": "breeze,декорации",
    "X-KDE-Keywords[ca@valencia]": "breeze,brisa,decoració",
    "X-KDE-Keywords[ca]": "breeze,brisa,decoració",
    "X-KDE-Keywords[cs]": "breeze,dekorace",
    "X-KDE-Keywords[da]": "breeze,dekoration",
    "X-KDE-Keywords[de]": "Dekoration",
    "X-KDE-Keywords[el]": "breeze,διακόσμηση",
    "X-KDE-Keywords[en_GB]": "breeze,decoration",
    "X-KDE-Keywords[es]": "breeze,brisa,decoración",
    "X-KDE-Keywords[et]": "breeze,dekoratsioon",
    "X-KDE-Keywords[eu]": "breeze,apainketa,apaindura",
    "X-KDE-Keywords[fi]": "breeze,decoration,kehys,koriste,koristus,ikkunakehys",
    "X-KDE-Keywords[fr]": "brise,décoration",
    "X-KDE-Keywords[gl]": "breeze,decoración",
    "X-KDE-Keywords[he]": "breeze,decoration,מסגרת",
    "X-KDE-Keywords[hi]": "ब्रीज़, सजावट",
    "X-KDE-Keywords[hu]": "breeze,dekoráció",
    "X-KDE-Keywords[ia]": "breeze,decoration",
    "X-KDE-Keywords[id]": "breeze,dekorasi",
    "X-KDE-Keywords[it]": "brezza,decorazione",
    "X-KDE-Keywords[ja]": "breeze,decoration",
    "X-KDE-Keywords[ko]": "breeze,decoration,장식",
    "X-KDE-Keywords[lt]": "breeze,dekoracija",
    "X-KDE-Keywords[nb]": "beeze,dekorasjon",
    "X-KDE-Keywords[nl]": "breeze,decoratie",
    "X-KDE-Keywords[nn]": "breeze,dekorasjonar,pynt",
    "X-KDE-Keywords[pa]": "ਬਰੀਜ਼,ਸਜਾਵਟ",
    "X-KDE-Keywords[pl]": "breeze,dekoracja,bryza,wystrój",
    "X-KDE-Keywords[pt]": "brisa,decoração",
    "X-KDE-Keywords[pt_BR]": "breeze,decoração",
    "X-KDE-Keywords[ro]": "briză,breeze,decorare,decorație",
    "X-KDE-Keywords[ru]": "breeze,бриз,decoration,декорации окон,оформление окон",
    "X-KDE-Keywords[sk]": "vánok,dekorácia",
    "X-KDE-Keywords[sl]": "sapica,okraski,okrasitev,breeze",
    "X-KDE-Keywords[sr@ijekavian]": "breeze,decoration,Поветарац,декорација",
    "X-KDE-Keywords[sr@ijekavianlatin]": "breeze,decoration,Povetarac,dekoracija",
    "X-KDE-Keywords[sr@latin]": "breeze,decoration,Povetarac,dekoracija",
    "X-KDE-Keywords[sr]": "breeze,decoration,Поветарац,декорација",
    "X-KDE-Keywords[sv]": "breeze,dekoration",
    "X-KDE-Keywords[tg]": "насим,ороиш",
    "X-KDE-Keywords[tr]": "esinti,dekorasyon",
    "X-KDE-Keywords[uk]": "breeze,decoration,бриз,декорації,декорація,обрамлення",
    "X-KDE-Keywords[x-test]": "xxbreezexx,xxdecorationxx",
    "X-KDE-Keywords[zh_CN]": "breeze,微风,装饰,修饰",
    "X-KDE-Keywords[zh_TW]": "breeze,decoration",
    "X-KDE-ParentApp": "kcontrol",
    "X-KDE-Weight": 60
}
